{
  "11": "higher_math",
  "12": "discrete_math",
  "13": "computational",
  "15": "other",
  "21": "theoretical",
  "22": "general",
  "23": "theoretical mechanics",
  "24": "labs",
  "25": "other",
  "31": "algorithms",
  "32": "programming",
  "33": "languages",
  "34": "system programming",
  "35": "other",
  "41": "english",
  "45": "other",
  "51": "inorganic",
  "52": "organic",
  "53": "physical chemistry",
  "55": "other"
}